…
This data has 15 columns and1384617rows. It contains numeric columns and character columns. Overall, this data contains inforation about order ID, product ID, customer ID, aisle name, the number of products, the number of order, etc. The key variables are those including ID information, beucase these variables are unique to each order or user. From this data we can tell what has a certain customer purchased. For example, we can tell thet user ID 112108 purchased Bulgarian Yogurt, Organic 4% Milk Fat Whole Milk Cottage Cheese, Organic Celery Hearts, and other 5 types of product. We can also tell how many times a certain customer has ordered a product. For example, user ID 112108 ordered Bulgarian Yogurt twice, becuase it is shown in caolumn of reordered that it has been reordered once. 


Number of aisle

```r
  instacart%>% 
  group_by (aisle) %>%
  summarize (
    n_aisle = n()
    )
```

```
## # A tibble: 134 x 2
##    aisle                  n_aisle
##    <chr>                    <int>
##  1 air fresheners candles    1067
##  2 asian foods               7007
##  3 baby accessories           306
##  4 baby bath body care        328
##  5 baby food formula        13198
##  6 bakery desserts           1501
##  7 baking ingredients       13088
##  8 baking supplies decor     1094
##  9 beauty                     287
## 10 beers coolers             1839
## # ... with 124 more rows
```
…
```
## # A tibble: 10,625 x 23
##     year state county class topic question response sample_size data_value
##    <int> <chr> <chr>  <chr> <chr> <chr>    <fct>          <int>      <dbl>
##  1  2010 AL    AL - ~ Heal~ Over~ How is ~ Excelle~          94       18.9
##  2  2010 AL    AL - ~ Heal~ Over~ How is ~ Very go~         148       30  
##  3  2010 AL    AL - ~ Heal~ Over~ How is ~ Good             208       33.1
##  4  2010 AL    AL - ~ Heal~ Over~ How is ~ Fair             107       12.5
##  5  2010 AL    AL - ~ Heal~ Over~ How is ~ Poor              45        5.5
##  6  2010 AL    AL - ~ Heal~ Over~ How is ~ Excelle~          91       15.6
##  7  2010 AL    AL - ~ Heal~ Over~ How is ~ Very go~         177       31.3
##  8  2010 AL    AL - ~ Heal~ Over~ How is ~ Good             224       31.2
##  9  2010 AL    AL - ~ Heal~ Over~ How is ~ Fair             120       15.5
## 10  2010 AL    AL - ~ Heal~ Over~ How is ~ Poor              66        6.4
## # ... with 10,615 more rows, and 14 more variables:
## #   confidence_limit_low <dbl>, confidence_limit_high <dbl>,
## #   display_order <int>, data_value_unit <chr>, data_value_type <chr>,
## #   data_value_footnote_symbol <chr>, data_value_footnote <chr>,
## #   data_source <chr>, class_id <chr>, topic_id <chr>, location_id <chr>,
## #   question_id <chr>, respid <chr>, geo_location <chr>
```
…
